<?xml version="1.0" standalone="no"?>
<!DOCTYPE svg PUBLIC "-//W3C//DTD SVG 1.1//EN" "http://www.w3.org/Graphics/SVG/1.1/DTD/svg11.dtd" >
<svg xmlns="http://www.w3.org/2000/svg">
<metadata>Generated by IcoMoon</metadata>
<defs>
<font id="shMain" horiz-adv-x="1024">
<font-face units-per-em="1024" ascent="960" descent="-64" />
<missing-glyph horiz-adv-x="1024" />
<glyph unicode="&#x20;" horiz-adv-x="512" d="" />
<glyph unicode="&#xe900;" glyph-name="link" d="M97.28 448c0.067 87.632 71.088 158.653 158.714 158.72h204.806v97.28h-204.8c-141.385 0-256-114.615-256-256v0c0-141.385 114.615-256 256-256v0h204.8v97.319h-204.8c-87.618 0.067-158.63 71.066-158.72 158.672v0.009zM307.2 396.8h409.6v102.4h-409.6zM768 704h-204.8v-97.28h204.8c87.632-0.067 158.653-71.088 158.72-158.714v-0.006c-0.090-87.615-71.102-158.613-158.714-158.681h-204.806v-97.28h204.8c141.385 0 256 114.615 256 256v0c-0.022 141.368-114.629 255.961-256 255.961v0z" />
<glyph unicode="&#xe901;" glyph-name="add_document" d="M921.6 755.121h-409.6l-102.4 102.4h-307.2c-0.071 0-0.155 0-0.239 0-56.119 0-101.612-45.493-101.612-101.612 0-0.277 0.001-0.554 0.003-0.83v0.042l-0.512-614.4c0-0.105-0.001-0.23-0.001-0.355 0-56.358 45.687-102.046 102.046-102.046 0.125 0 0.25 0 0.374 0.001h819.142c0.105 0 0.23-0.001 0.355-0.001 56.358 0 102.046 45.687 102.046 102.046 0 0.125 0 0.25-0.001 0.374v-0.019 512c0 0.105 0.001 0.23 0.001 0.355 0 56.358-45.687 102.046-102.046 102.046-0.125 0-0.25 0-0.374-0.001h0.019zM870.4 345.521h-153.6v-153.6h-102.4v153.6h-153.6v102.4h153.6v153.6h102.4v-153.6h153.6z" />
<glyph unicode="&#xe902;" glyph-name="all_document" d="M85.346 704h-85.346v-597.307c0.134-47.082 38.265-85.212 85.334-85.346h768.013v85.346h-768zM938.654 789.346h-341.307l-85.346 85.346h-256c-47.082-0.134-85.212-38.265-85.346-85.334v-512.013c0.134-47.082 38.265-85.212 85.334-85.346h682.667c47.054 0.134 85.168 38.22 85.346 85.251v426.671c-0.134 47.082-38.265 85.212-85.334 85.346h-0.013z" />
<glyph unicode="&#xe903;" glyph-name="all_shared_documents" d="M921.6 755.2h-409.6l-102.4 102.4h-307.2c-56.333-0.291-101.888-46.025-101.888-102.399 0 0 0-0.001 0-0.001v0l-0.512-614.4c0.179-56.482 45.918-102.221 102.383-102.4h819.217c56.482 0.179 102.221 45.918 102.4 102.383v512.017c-0.179 56.482-45.918 102.221-102.383 102.4h-0.017zM665.6 601.6c56.482-0.179 102.221-45.918 102.4-102.383v-0.017c-0.179-56.482-45.918-102.221-102.383-102.4h-0.017c-56.482 0.179-102.221 45.918-102.4 102.383v0.017c0.179 56.482 45.918 102.221 102.383 102.4h0.017zM870.4 192h-409.6v51.2c0 68.096 136.704 102.4 204.8 102.4s204.8-34.304 204.8-102.4z" />
<glyph unicode="&#xe904;" glyph-name="analytics" d="M717.036 753.822l116.697-116.775-248.714-248.714-203.855 203.894-377.698-378.092 71.877-71.877 305.822 305.743 203.855-203.855 321.103 320.591 116.736-116.736v305.822z" />
<glyph unicode="&#xe905;" glyph-name="back" d="M1024 504.911h-806.124l203.658 204.209-80.187 80.226-341.346-341.346 341.346-341.307 80.187 80.187-203.658 204.249h806.124z" />
<glyph unicode="&#xe906;" glyph-name="become_an_affiliate" horiz-adv-x="1063" d="M422.636 158.641l-88.182 82.156h-142.769v406.213h54.902c0.112-0.001 0.245-0.002 0.378-0.002 11.729 0 21.962 6.409 27.386 15.916l0.081 0.155 27.806 51.87c16.528 28.944 47.202 48.138 82.359 48.138 0.483 0 0.964-0.004 1.445-0.011l-0.073 0.001h241.664c0.311 0.012 0.677 0.018 1.044 0.018 16.237 0 29.47-12.86 30.069-28.951l0.002-0.055c-0.191-21.177-5.32-41.111-14.29-58.767l0.347 0.754h-134.341c-0.522 0.008-1.137 0.012-1.754 0.012-46.84 0-87.7-25.609-109.34-63.59l-0.325-0.62-109.529-204.209c-1.934-3.736-3.069-8.155-3.069-12.84 0-12.058 7.515-22.36 18.117-26.479l0.194-0.066c31.675-16.604 69.198-26.347 108.996-26.347 4.302 0 8.577 0.114 12.823 0.339l-0.593-0.025c65.817 5.168 121.729 43.18 151.805 97.487l0.495 0.974 1.772 3.348h21.78l221.105-206.1c-10.901-10.588-24.455-18.503-39.567-22.653l-0.644-0.151-265.886-77.863c-8.384-2.698-18.028-4.254-28.036-4.254-0.044 0-0.087 0-0.13 0h0.007c-0.129-0.001-0.281-0.001-0.433-0.001-25.344 0-48.416 9.731-65.682 25.661l0.066-0.060zM917.11 248.674v389.908h95.468c0.462 0.026 1.003 0.040 1.547 0.040 15.748 0 28.625-12.291 29.563-27.803l0.004-0.083v-334.178c-0.941-15.595-13.819-27.885-29.567-27.885-0.544 0-1.085 0.015-1.622 0.044l0.075-0.003zM50.649 248.674c-0.462-0.026-1.003-0.040-1.547-0.040-15.748 0-28.625 12.291-29.563 27.803l-0.004 0.083v334.178c0.941 15.595 13.819 27.885 29.567 27.885 0.544 0 1.085-0.015 1.622-0.044l-0.075 0.003h95.429v-389.908zM637.204 482.225c-11.694 9.943-26.968 15.991-43.655 15.991-0.132 0-0.265 0-0.397-0.001h-60.238l-20.48-35.919c-22.592-36.55-62.444-60.539-107.9-60.539-1.182 0-2.361 0.016-3.535 0.048l0.173-0.004c-0.078 0-0.171 0-0.264 0-17.823 0-34.856 3.383-50.492 9.541l0.935-0.324 94.759 166.242c11.341 18.234 31.269 30.192 53.991 30.192 0.611 0 1.221-0.009 1.828-0.026l-0.089 0.002h366.277v-327.601z" />
<glyph unicode="&#xe907;" glyph-name="close" d="M1024 856.891l-103.148 103.109-408.852-408.852-408.852 408.852-103.148-103.109 408.852-408.891-408.852-408.852 103.148-103.148 408.852 408.891 408.852-408.891 103.148 103.148-408.852 408.852z" />
<glyph unicode="&#xe908;" glyph-name="contacts" d="M853.346 960h-682.693v-85.307h682.693zM170.654-64h682.693v85.346h-682.693zM853.346 789.346h-682.693c-47.065-0.156-85.173-38.279-85.307-85.334v-512.013c0.156-47.051 38.256-85.151 85.292-85.307h682.708c47.051 0.156 85.151 38.256 85.307 85.292v512.015c-0.134 47.068-38.242 85.19-85.292 85.346h-0.015zM512 672.020c52.986-0.090 95.913-43.030 95.98-96.013v-0.007c-0.090-52.972-43.008-95.891-95.972-95.98h-0.009c-52.98 0.089-95.908 43.003-96.020 95.969v0.011c0.090 52.994 43.026 95.93 96.011 96.020h0.008zM725.346 234.85h-426.693v64c0 71.247 142.1 106.654 213.346 106.654s213.346-35.446 213.346-106.654z" />
<glyph unicode="&#xe909;" glyph-name="copy" d="M721.447 960h-558.553c-51.345-0.134-92.932-41.721-93.066-93.053v-651.671h93.066v651.658h558.553zM674.895 773.829l279.276-279.276v-465.644c-0.134-51.353-41.716-92.949-93.051-93.105h-512.488c-51.203 0.201-92.633 41.756-92.633 92.986 0 0.042 0 0.084 0 0.125v-0.007l0.473 651.618c0 0.035 0 0.077 0 0.119 0 51.231 41.43 92.785 92.614 92.986h0.019zM628.382 448h256l-256 256z" />
<glyph unicode="&#xe90a;" glyph-name="credit_card" d="M853.333 789.333h-682.667c-47.36 0-84.907-37.973-84.907-85.333l-0.427-512c0-47.36 37.973-85.333 85.333-85.333h682.667c47.36 0 85.333 37.973 85.333 85.333v512c0 47.36-37.973 85.333-85.333 85.333zM853.333 192h-682.667v256h682.667v-256zM853.333 618.667h-682.667v85.333h682.667v-85.333z" />
<glyph unicode="&#xe90b;" glyph-name="date_time" d="M679.463 852.362h-43.047v86.134h-86.134v-86.134h-339.732v86.134h-86.134v-86.134h-38.282c-0.105 0-0.23 0.001-0.355 0.001-47.375 0-85.78-38.405-85.78-85.78 0-0.125 0-0.25 0.001-0.374v0.019-598.134c0-0.105-0.001-0.23-0.001-0.355 0-47.375 38.405-85.78 85.78-85.78 0.125 0 0.25 0 0.374 0.001h382.799c-12.828 24.473-24.251 53.067-32.73 82.9l-0.786 3.234h-349.302v473.718h598.134v-90.939c15.601 3.18 33.533 5 51.89 5 3.622 0 7.227-0.071 10.814-0.211l-0.516 0.016h23.946v210.55c-3.787 47.634-42.824 85.004-90.829 86.132l-0.11 0.002zM756.185 373.642h-43.323v-162.698l143.557-86.134 19.141 33.516-124.416 71.759v143.557zM765.598 512.591h-23.906c-22.355-0.505-43.703-3.966-63.937-10.009l1.71 0.438c-121.434-30.824-209.933-138.905-210.511-267.75v-0.065c0.909-24.196 4.346-47.151 10.062-69.187l-0.492 2.233c9.538-32.763 22.574-61.355 39.073-87.546l-0.83 1.412c48.577-75.29 132.039-124.43 226.977-124.43 0.954 0 1.907 0.005 2.859 0.015l-0.145-0.001c0.243-0.001 0.531-0.001 0.819-0.001 151.38 0 274.374 121.54 276.722 272.361l0.003 0.221c-1.107 147.297-113.512 267.997-257.218 282.214l-1.184 0.095zM746.457 38.873c-108.59 1.103-196.194 89.388-196.194 198.134 0 0.959 0.007 1.916 0.020 2.872l-0.002-0.145c0.423 108.174 88.001 195.751 196.134 196.175h0.041c109.223-0.185 198.027-87.347 200.856-195.912l0.005-0.262c-4.175-109.213-91.649-196.686-200.474-200.85l-0.388-0.012z" />
<glyph unicode="&#xe90c;" glyph-name="delete" d="M170.654 49.782c0.245-62.741 51.041-113.537 113.759-113.782h455.152c62.741 0.245 113.537 51.041 113.782 113.759v682.677h-682.693zM910.218 903.089h-199.089l-56.911 56.911h-284.436l-56.911-56.911h-199.089v-113.743h796.436z" />
<glyph unicode="&#xe90d;" glyph-name="document" d="M409.6 857.246h-306.924c-56.254-0.224-101.77-45.878-101.77-102.163 0-0.083 0-0.167 0-0.25v0.013l-0.512-613.849c0-56.554 45.846-102.4 102.4-102.4v0h818.452c56.554 0 102.4 45.846 102.4 102.4v0 511.567c-0.112 56.509-45.891 102.288-102.389 102.4h-409.257z" />
<glyph unicode="&#xe90e;" glyph-name="document_tracking" d="M614.4 960h-409.6c-56.333-0.291-101.888-46.025-101.888-102.399 0 0 0-0.001 0-0.001v0l-0.512-819.2c0 0 0-0.001 0-0.001 0-56.374 45.555-102.108 101.86-102.399h614.94c56.482 0.179 102.221 45.918 102.4 102.383v614.417zM716.8 140.8h-409.6v102.4h409.6zM716.8 345.6h-409.6v102.4h409.6zM563.2 601.6v281.6l281.6-281.6z" />
<glyph unicode="&#xe90f;" glyph-name="down_arrow" d="M903.759 763.983l-391.483-390.617-391.483 390.617-120.241-120.241 511.724-511.764 511.724 511.764z" />
<glyph unicode="&#xe910;" glyph-name="download" d="M933.415 598.843h-240.798v361.157h-361.157v-361.157h-240.876l421.415-421.415zM90.585 57.108v-120.399h842.831v120.399z" />
<glyph unicode="&#xe911;" glyph-name="edit" d="M0 149.386v-213.307h213.268l629.169 629.051-213.307 213.307zM1007.262 730.073c10.277 10.254 16.635 24.431 16.635 40.094s-6.358 29.84-16.633 40.092l-133.121 133.121c-10.254 10.277-24.431 16.635-40.094 16.635s-29.84-6.358-40.092-16.633l-104.095-104.095 213.307-213.307z" />
<glyph unicode="&#xe912;" glyph-name="email" d="M921.6 857.6h-819.2c-56.333-0.291-101.888-46.025-101.888-102.399 0 0 0-0.001 0-0.001v0l-0.512-614.4c0.179-56.482 45.918-102.221 102.383-102.4h819.217c56.482 0.179 102.221 45.918 102.4 102.383v614.417c-0.179 56.482-45.918 102.221-102.383 102.4h-0.017zM921.6 652.8l-409.6-256-409.6 256v102.4l409.6-256 409.6 256z" />
<glyph unicode="&#xe913;" glyph-name="email_campaigns" d="M884.382 587.658h-744.763c-51.35-0.156-92.932-41.752-93.066-93.092v-465.46c0.134-51.353 41.716-92.949 93.051-93.105h744.778c51.35 0.156 92.932 41.752 93.066 93.092v465.46c-0.134 51.353-41.716 92.949-93.051 93.105h-0.015zM884.382 401.447l-372.382-232.606-372.382 232.724v93.105l372.382-232.842 372.382 232.724zM139.618 773.829h744.724v-93.105h-744.724v93.105zM232.724 960h558.553v-93.105h-558.553v93.105z" />
<glyph unicode="&#xe914;" glyph-name="email_reports" d="M1024 634.171c-0.156-51.358-41.748-92.949-93.090-93.105h-0.015c-0.326-0.005-0.711-0.008-1.097-0.008-8.034 0-15.788 1.197-23.094 3.423l0.56-0.147-165.73-165.415c2.080-6.879 3.278-14.784 3.278-22.969 0-0.426-0.003-0.852-0.010-1.277l0.001 0.064c-0.156-51.358-41.748-92.949-93.090-93.105h-0.015c-51.35 0.156-92.932 41.752-93.066 93.092v0.013c-0.008 0.412-0.012 0.897-0.012 1.383 0 8.126 1.199 15.972 3.429 23.371l-0.148-0.573-118.705 118.705c-6.891-2.080-14.81-3.278-23.009-3.278-0.426 0-0.852 0.003-1.277 0.010l0.064-0.001c-0.353-0.005-0.769-0.009-1.186-0.009-8.194 0-16.109 1.197-23.579 3.427l0.583-0.149-211.85-212.047c2.055-6.713 3.239-14.43 3.239-22.423 0-0.425-0.003-0.848-0.010-1.271l0.001 0.064c-0.134-51.345-41.721-92.932-93.053-93.066h-0.013c-51.353 0.134-92.949 41.716-93.105 93.051v0.015c0.156 51.358 41.748 92.949 93.090 93.105h0.015c0.326 0.005 0.711 0.008 1.097 0.008 8.034 0 15.788-1.197 23.094-3.423l-0.56 0.147 212.244 211.771c-2.056 6.866-3.24 14.756-3.24 22.922 0 0.457 0.004 0.913 0.011 1.368l-0.001-0.069c0.134 51.353 41.716 92.949 93.051 93.105h0.015c51.447-0.112 93.117-41.81 93.184-93.256v-0.006c0.005-0.348 0.008-0.759 0.008-1.17 0-8.213-1.197-16.147-3.427-23.636l0.15 0.585 118.705-118.666c6.887 2.080 14.802 3.277 22.996 3.277 0.417 0 0.833-0.003 1.249-0.009l-0.063 0.001c0.361 0.006 0.786 0.009 1.213 0.009 8.199 0 16.118-1.198 23.592-3.427l-0.583 0.149 165.218 165.691c-2.055 6.713-3.239 14.43-3.239 22.423 0 0.425 0.003 0.848 0.010 1.271l-0.001-0.064c0.134 51.345 41.721 92.932 93.053 93.066h0.013c51.311-0.134 92.882-41.649 93.105-92.926v-0.021z" />
<glyph unicode="&#xe915;" glyph-name="email_sequence" d="M943.458 555.52v390.459l-131.702-131.702c-81.288 63.693-185.016 102.14-297.724 102.14-267.848 0-484.982-217.134-484.982-484.982 0-112.708 38.446-216.435 102.94-298.784l-0.8 1.060 86.646 86.646c-42.259 58.65-67.585 131.95-67.585 211.165 0 200.854 162.824 363.678 363.678 363.678 79.205 0 152.497-25.32 212.222-68.308l-1.080 0.739-167.818-167.818zM897.575 133.711c51.179 65.457 86.048 145.993 97.192 233.929l0.246 2.379h-121.895c-9.554-56.946-31.483-107.513-62.965-150.666l0.698 1.004zM304.089 135.010l-86.646-86.646c65.388-51.529 145.905-86.737 233.882-98.203l2.426-0.258v123.707c-56.888 9.234-107.479 30.883-150.693 62.11l1.032-0.71zM574.937 71.995l0.354-121.502c90.334 11.298 170.892 46.198 237.354 98.267l-1.047-0.79-86.646 86.646c-42.251-30.827-92.883-52.87-147.813-62.357l-2.124-0.304z" />
<glyph unicode="&#xe916;" glyph-name="email_tracking" d="M1023.015 575.842c0.002 0.213 0.003 0.466 0.003 0.718 0 36.262-19.039 68.077-47.666 85.995l-0.425 0.248-462.927 271.124-462.927-271.124c-29.348-18.21-48.601-50.256-48.601-86.798 0-0.057 0-0.114 0-0.172v0.009-511.488c0.134-56.5 45.9-102.266 102.387-102.4h818.347c56.5 0.134 102.266 45.9 102.4 102.387v0.013zM512 320.118l-422.518 263.877 422.518 247.611 422.518-247.572z" />
<glyph unicode="&#xe917;" glyph-name="failed" d="M512 960c-282.77 0-512-229.23-512-512v0c0-282.77 229.23-512 512-512v0c282.77 0 512 229.23 512 512v0c0 282.77-229.23 512-512 512v0zM563.2 192h-102.4v102.4h102.4zM563.2 396.8h-102.4v307.2h102.4z" />
<glyph unicode="&#xe918;" glyph-name="feeds" d="M0 652.8h219.412v-716.8h-219.412zM409.6 960h204.8v-1024h-204.8zM819.2 374.823h204.8v-438.823h-204.8z" />
<glyph unicode="&#xe919;" glyph-name="filter" d="M387.23 516.096c6.332-6.498 10.257-15.368 10.319-25.155v-533.004l228.903 195.702v337.29c0.062 9.799 3.986 18.669 10.326 25.175l-0.008-0.008 387.23 421.967h-1024z" />
<glyph unicode="&#xe91a;" glyph-name="full_view" d="M640 832l98.133-98.133-123.307-122.453 60.587-60.587 122.453 123.307 98.133-98.133v256zM128 576l98.133 98.133 122.453-123.307 60.587 60.587-123.307 122.453 98.133 98.133h-256zM384 64l-98.133 98.133 123.307 122.453-60.587 60.587-122.453-123.307-98.133 98.133v-256zM896 320l-98.133-98.133-122.453 123.307-60.587-60.587 123.307-122.453-98.133-98.133h256z" />
<glyph unicode="&#xe91b;" glyph-name="help_icon" d="M512 874.667c-235.52 0-426.667-191.147-426.667-426.667s191.147-426.667 426.667-426.667 426.667 191.147 426.667 426.667-191.147 426.667-426.667 426.667zM554.667 149.333h-85.333v85.333h85.333v-85.333zM642.987 480l-38.4-39.253c-30.72-31.147-49.92-56.747-49.92-120.747h-85.333v21.333c0 46.933 19.2 89.6 49.92 120.747l52.907 53.76c15.787 15.36 25.173 36.693 25.173 60.16 0 46.933-38.4 85.333-85.333 85.333s-85.333-38.4-85.333-85.333h-85.333c0 94.293 76.373 170.667 170.667 170.667s170.667-76.373 170.667-170.667c0-37.547-15.36-71.68-39.68-96z" />
<glyph unicode="&#xe91c;" glyph-name="information" d="M512 960c-282.77 0-512-229.23-512-512v0c0-282.77 229.23-512 512-512v0c282.77 0 512 229.23 512 512v0c0 282.77-229.23 512-512 512v0zM563.2 192h-102.4v307.2h102.4zM563.2 601.6h-102.4v102.4h102.4z" />
<glyph unicode="&#xe91d;" glyph-name="left_arrow" d="M828.18 839.68l-390.853-391.68 390.853-391.68-120.32-120.32-512 512 512 512z" />
<glyph unicode="&#xe91e;" glyph-name="location_tracking" d="M512 874.667c-165.12 0-298.667-133.547-298.667-298.667 0-224 298.667-554.667 298.667-554.667s298.667 330.667 298.667 554.667c0 165.12-133.547 298.667-298.667 298.667zM512 469.333c-58.88 0-106.667 47.787-106.667 106.667s47.787 106.667 106.667 106.667 106.667-47.787 106.667-106.667-47.787-106.667-106.667-106.667z" />
<glyph unicode="&#xe91f;" glyph-name="logout_icon" d="M430.507 294.827l60.16-60.16 213.333 213.333-213.333 213.333-60.16-60.16 110.080-110.507h-412.587v-85.333h412.587l-110.080-110.507zM810.667 832h-597.333c-47.36 0-85.333-38.4-85.333-85.333v-170.667h85.333v170.667h597.333v-597.333h-597.333v170.667h-85.333v-170.667c0-46.933 37.973-85.333 85.333-85.333h597.333c46.933 0 85.333 38.4 85.333 85.333v597.333c0 46.933-38.4 85.333-85.333 85.333z" />
<glyph unicode="&#xe920;" glyph-name="mail_bounce" horiz-adv-x="1063" d="M575.882 230.439c-0.001 0.199-0.001 0.435-0.001 0.671 0 129.357 104.618 234.278 233.859 234.77h0.047c129.271-0.514 233.867-105.427 233.867-234.77 0-0.236 0-0.472-0.001-0.708v0.036c0.001-0.188 0.001-0.41 0.001-0.632 0-129.335-104.6-234.239-233.82-234.731h-0.047c-129.283 0.47-233.906 105.382-233.906 234.731 0 0.222 0 0.444 0.001 0.666v-0.035zM786.393 112.758h46.789v47.262h-46.789zM786.393 206.927h46.789v141.194h-46.789zM104.527 217.954c-46.915 0.29-84.834 38.389-84.834 85.345 0 0.014 0 0.029 0 0.043v-0.002l0.433 512.197c-0.001 0.129-0.001 0.282-0.001 0.435 0 46.725 37.722 84.639 84.373 84.951h678.745c46.915-0.29 84.834-38.389 84.834-85.345 0-0.014 0-0.029 0-0.043v0.002-308.854c-17.502 3.914-37.608 6.166-58.237 6.183h-0.012c-155.167-0.671-280.695-126.613-280.695-281.873 0-0.208 0-0.417 0.001-0.625v0.032c0-4.175 0.473-8.31 0.591-12.485zM104.527 730.191l339.338-213.425 339.377 213.425v85.346l-339.377-213.425-339.338 213.425z" />
<glyph unicode="&#xe921;" glyph-name="menu" d="M0 106.693h1024v113.782h-1024zM0 391.129h1024v113.782h-1024zM0 789.346v-113.782h1024v113.703z" />
<glyph unicode="&#xe922;" glyph-name="more_options" d="M512 704c70.603 0.223 127.777 57.397 128 127.979v0.021c-0.201 70.611-57.389 127.799-127.981 128h-0.019c-70.611-0.201-127.799-57.389-128-127.981v-0.019c0.223-70.603 57.397-127.777 127.979-128h0.021zM512 576c-70.611-0.201-127.799-57.389-128-127.981v-0.019c0.223-70.603 57.397-127.777 127.979-128h0.021c70.603 0.223 127.777 57.397 128 127.979v0.021c-0.201 70.611-57.389 127.799-127.981 128h-0.019zM512 192c-70.611-0.201-127.799-57.389-128-127.981v-0.019c0.223-70.603 57.397-127.777 127.979-128h0.021c70.603 0.223 127.777 57.397 128 127.979v0.021c-0.201 70.611-57.389 127.799-127.981 128h-0.019z" />
<glyph unicode="&#xe923;" glyph-name="move" d="M921.088 754.846h-409.088l-102.4 102.4h-306.806c-56.554 0-102.4-45.846-102.4-102.4v0-613.573c0-56.554 45.846-102.4 102.4-102.4v0h818.294c56.554 0 102.4 45.846 102.4 102.4v0 511.37c-0.112 56.469-45.915 102.203-102.4 102.203 0 0 0 0 0 0v0zM747.244 228.116v86.922h-168.763v168.881h168.763v81.841l168.724-168.763z" />
<glyph unicode="&#xe924;" glyph-name="my_proifle" d="M512 960c-282.77 0-512-229.23-512-512v0c0-282.77 229.23-512 512-512v0c282.77 0 512 229.23 512 512v0c0 282.77-229.23 512-512 512v0zM512 806.4c84.831 0 153.6-68.769 153.6-153.6v0c0-84.831-68.769-153.6-153.6-153.6v0c-84.831 0-153.6 68.769-153.6 153.6v0c0 84.831 68.769 153.6 153.6 153.6v0zM512 79.36c-127.68 0.007-240.198 64.917-306.361 163.536l-0.839 1.328c1.536 101.888 204.8 157.538 307.2 157.538s305.664-55.808 307.2-157.538c-67.002-99.947-179.52-164.857-307.199-164.864h-0.001z" />
<glyph unicode="&#xe925;" glyph-name="notification" d="M512-63.212c57.852 0.179 104.703 47.029 104.881 104.864v0.017h-209.762c0-0.012 0-0.026 0-0.039 0-57.903 46.939-104.842 104.842-104.842 0.014 0 0.028 0 0.042 0h-0.002zM826.604 251.392v262.183c0 160.965-85.977 295.7-235.953 331.382v35.446c0 0.070 0 0.153 0 0.237 0 43.373-35.16 78.533-78.533 78.533-0.083 0-0.166 0-0.249 0h0.013c-0.070 0-0.153 0-0.237 0-43.373 0-78.533-35.16-78.533-78.533 0-0.083 0-0.166 0-0.249v0.013-35.446c-150.489-35.682-235.953-169.905-235.953-331.382v-262.183l-104.881-104.881v-52.421h838.892v52.421z" />
<glyph unicode="&#xe926;" glyph-name="notifications_off" d="M905.492 110.001l-772.844 797.617-66.639-66.639 146.944-146.905v-0.512c-26.479-50.867-42.011-111.077-42.011-174.915 0-1.59 0.010-3.177 0.029-4.762l-0.002 0.241v-262.341l-104.96-104.921v-52.618h720.384l104.96-104.921 66.639 66.639zM485.77-63.527c0.141-0.001 0.307-0.001 0.473-0.001 57.729 0 104.527 46.798 104.527 104.527 0 0.139 0 0.278-0.001 0.416v-0.021h-209.92c0-0.117-0.001-0.256-0.001-0.395 0-57.729 46.798-104.527 104.527-104.527 0.139 0 0.277 0 0.416 0.001h-0.021zM800.571 320.512v192.985c0 161.477-86.055 295.897-236.111 331.579v35.682c0 43.503-35.266 78.769-78.769 78.769v0c-43.503 0-78.769-35.266-78.769-78.769v0-35.682c-9.041-2.090-16.416-4.255-23.622-6.78l1.567 0.478c-5.238-1.575-10.476-3.663-15.754-5.75h-0.354c-0.512 0-0.512 0-1.024-0.551-12.091-4.726-24.143-10.476-35.682-16.266 0 0-0.551 0-0.551-0.512z" />
<glyph unicode="&#xe927;" glyph-name="performance" d="M200.034 705.378h176.601v-594.196h-176.601zM529.684 960h164.825v-848.817h-164.825zM859.333 474.978h164.825v-363.796h-164.825zM1024.158-64h-1024v1024h80.896v-943.34h943.104z" />
<glyph unicode="&#xe928;" glyph-name="referesh" horiz-adv-x="1408" d="M1152.197 704l-256-256h192.039c-0.202-211.98-172.013-383.764-383.985-383.921h-0.015c-0.384-0.001-0.839-0.002-1.295-0.002-65.174 0-126.474 16.585-179.91 45.765l1.965-0.982-93.42-93.42c77.141-49.801 171.387-79.399 272.546-79.399 0.040 0 0.080 0 0.12 0h-0.006c282.77 0 512 229.23 512 512v0h191.961zM320.236 448c0.157 212.014 171.986 383.843 383.985 384h0.015c0.332 0.001 0.726 0.002 1.119 0.002 65.14 0 126.406-16.585 179.806-45.764l-1.962 0.982 93.42 93.42c-77.141 49.801-171.387 79.399-272.546 79.399-0.026 0-0.052 0-0.078 0h0.004c-282.77 0-512-229.23-512-512v0h-192.079l256-256 256 256z" />
<glyph unicode="&#xe929;" glyph-name="reply" d="M397.036 646.538v226.895l-397.036-397.154 397.036-396.958v232.369c283.569 0 482.146-90.585 623.97-289.28-56.753 283.806-226.895 567.414-623.97 624.128z" />
<glyph unicode="&#xe92a;" glyph-name="right_arrow" d="M195.86 56.32l390.814 391.68-390.814 391.68 120.281 120.32 512-512-512-512z" />
<glyph unicode="&#xe92b;" glyph-name="sent" d="M2.521 11.54l1018.25 436.618-1018.25 436.46-0.512-339.574 727.71-97.044-727.71-97.004z" />
<glyph unicode="&#xe92c;" glyph-name="settings" d="M903.68 398.1c2.010 14.898 3.209 32.208 3.308 49.779l0.001 0.121c0.001 0.269 0.001 0.588 0.001 0.906 0 17.3-1.433 34.266-4.186 50.785l0.247-1.79 111.301 84.48c5.952 4.796 9.727 12.085 9.727 20.256 0 4.543-1.167 8.813-3.218 12.527l0.068-0.134-105.314 177.231c-4.838 7.899-13.422 13.089-23.217 13.089-3.24 0-6.347-0.568-9.228-1.609l0.189 0.060-131.033-51.2c-25.669 19.41-54.998 36.166-86.377 48.929l-2.593 0.932-19.692 135.68c-2.096 12.477-12.817 21.866-25.731 21.866-0.217 0-0.434-0.003-0.649-0.008l0.032 0.001h-210.668c-0.159 0.004-0.347 0.006-0.535 0.006-12.753 0-23.312-9.398-25.127-21.647l-0.017-0.139-19.692-135.68c-33.941-13.825-63.232-30.584-89.91-50.633l1.019 0.733-131.033 51.2c-2.786 1.092-6.012 1.725-9.385 1.725-9.729 0-18.228-5.265-22.803-13.101l-0.068-0.125-105.314-177.231c-2.288-3.638-3.646-8.062-3.646-12.803 0-8.142 4.004-15.348 10.15-19.758l0.073-0.050 111.301-84.48c-2.738-14.908-4.42-32.185-4.645-49.812l-0.002-0.206c0-0.126 0-0.275 0-0.424 0-17.469 1.432-34.603 4.186-51.292l-0.247 1.816-111.262-84.519c-5.943-4.796-9.713-12.080-9.713-20.244 0-4.532 1.161-8.792 3.203-12.5l-0.068 0.134 105.314-177.231c4.832-7.885 13.401-13.065 23.181-13.065 3.254 0 6.373 0.573 9.264 1.625l-0.188-0.060 131.033 51.2c25.637-19.408 54.925-36.174 86.258-48.964l2.594-0.936 19.692-135.641c2.336-12.47 13.138-21.781 26.114-21.781 0.082 0 0.165 0 0.247 0.001h210.655c0.282-0.011 0.613-0.018 0.946-0.018 12.664 0 23.123 9.443 24.719 21.672l0.013 0.126 19.692 135.68c33.941 13.825 63.232 30.584 89.91 50.633l-1.019-0.733 131.033-51.2c2.786-1.092 6.012-1.725 9.385-1.725 9.729 0 18.228 5.265 22.803 13.101l0.068 0.125 105.314 177.231c2.288 3.638 3.646 8.062 3.646 12.803 0 8.142-4.004 15.348-10.15 19.758l-0.073 0.050zM511.961 256c-0.629-0.007-1.372-0.011-2.117-0.011-106.722 0-193.46 85.564-195.355 191.834l-0.002 0.178c1.898 106.447 88.635 192.011 195.358 192.011 0.744 0 1.487-0.004 2.23-0.012l-0.113 0.001c0.641 0.008 1.398 0.012 2.156 0.012 106.723 0 193.46-85.564 195.355-191.834l0.002-0.178c-1.898-106.447-88.635-192.011-195.358-192.011-0.744 0-1.487 0.004-2.23 0.012l0.113-0.001z" />
<glyph unicode="&#xe92d;" glyph-name="share" d="M820.421 236.19c-38.909-0.117-74.305-15.064-100.852-39.481l0.107 0.097-366.513 213.346c2.681 10.723 4.346 23.101 4.605 35.823l0.003 0.175c-0.262 12.883-1.927 25.246-4.849 37.116l0.241-1.157 362.338 211.298c27.326-25.737 64.229-41.572 104.83-41.63h0.011c0.070 0 0.153 0 0.236 0 85.048 0 153.994 68.945 153.994 153.994 0 0.069 0 0.139 0 0.208v-0.011c0 85.070-68.963 154.033-154.033 154.033-0.042 0-0.083 0-0.125 0h0.007c-0.059 0-0.128 0-0.197 0-85.048 0-153.994-68.945-153.994-153.994 0-0.083 0-0.166 0-0.249v0.013c0.262-12.883 1.927-25.246 4.849-37.116l-0.241 1.157-362.338-211.298c-27.326 25.737-64.229 41.572-104.83 41.63h-0.011c-0.070 0-0.153 0-0.236 0-85.048 0-153.994-68.945-153.994-153.994 0-0.069 0-0.139 0-0.208v0.011c0-0.058 0-0.128 0-0.197 0-85.070 68.963-154.033 154.033-154.033 0.069 0 0.139 0 0.208 0h-0.011c40.609 0.083 77.505 15.912 104.921 41.703l-0.079-0.074 366.001-213.819c-2.486-10.038-3.921-21.566-3.938-33.426v-0.012c0.112-82.767 67.11-149.849 149.835-150.095h0.024c82.867 0.090 150.022 67.231 150.134 150.084v0.011c-0.090 82.873-67.258 150.028-150.128 150.095h-0.006z" />
<glyph unicode="&#xe92e;" glyph-name="shared" d="M232.724 505.029c-55.598 3.002-99.545 48.816-99.545 104.895 0 1.893 0.050 3.775 0.149 5.643l-0.011-0.261c-0.088 1.607-0.138 3.489-0.138 5.382 0 56.079 43.946 101.893 99.279 104.884l0.266 0.011c55.762-2.989 99.846-48.932 99.846-105.172 0-1.795-0.045-3.58-0.134-5.354l0.010 0.249c0.079-1.524 0.124-3.309 0.124-5.105 0-56.24-44.084-102.184-99.581-105.161l-0.265-0.011zM232.724 431.458c9.649 0 20.598-0.748 32.256-1.851-39.417-28.954-64.88-74.908-65.496-126.839l-0.001-0.098v-91.963h-199.483v91.766c0 85.74 155.254 128.788 232.724 128.788zM782.809 505.029c57.348 1.953 103.095 48.912 103.095 106.556 0 1.308-0.024 2.611-0.070 3.909l0.005-0.188c0.041 1.109 0.065 2.412 0.065 3.721 0 57.644-45.747 104.603-102.917 106.551l-0.178 0.005c-57.496-1.958-103.361-49.039-103.361-106.832 0-1.212 0.020-2.418 0.060-3.62l-0.005 0.175c-0.035-1.027-0.056-2.234-0.056-3.445 0-57.793 45.866-104.873 103.183-106.827l0.179-0.005zM507.116 505.029c57.365 1.932 103.134 48.9 103.134 106.557 0 1.308-0.024 2.611-0.070 3.907l0.005-0.188c0.041 1.109 0.065 2.412 0.065 3.721 0 57.644-45.747 104.603-102.917 106.551l-0.178 0.005c-57.513-1.937-103.401-49.026-103.401-106.833 0-1.211 0.020-2.418 0.060-3.619l-0.005 0.175c-0.035-1.027-0.055-2.233-0.055-3.444 0-57.807 45.888-104.896 103.224-106.828l0.177-0.005zM507.116 431.458c-80.226-0.197-241.152-43.244-241.152-128.985v-91.963h482.383v91.963c0 85.74-160.886 128.788-241.191 128.788zM782.809 431.458c-10.004 0-21.346-0.748-33.438-1.851 40.642-28.344 67.122-74.558 67.976-127.002l0.002-0.131v-91.963h206.73v91.963c-0.039 85.74-160.965 128.788-241.27 128.788z" />
<glyph unicode="&#xe92f;" glyph-name="mark_default" d="M707.84 636.587l-281.173-281.173-153.173 152.747-60.16-60.16 213.333-213.333 341.333 341.333zM512 874.667c-235.52 0-426.667-191.147-426.667-426.667s191.147-426.667 426.667-426.667 426.667 191.147 426.667 426.667-191.147 426.667-426.667 426.667zM512 106.667c-188.587 0-341.333 152.747-341.333 341.333s152.747 341.333 341.333 341.333 341.333-152.747 341.333-341.333-152.747-341.333-341.333-341.333z" />
<glyph unicode="&#xe930;" glyph-name="stop_tracking" d="M512.551 704c128.49-0.045 232.639-104.194 232.684-232.68v-0.004c-0.020-30.719-6.169-59.996-17.29-86.682l0.552 1.494 135.877-135.877c69.715 58.404 124.238 132.651 158.311 217.327l1.315 3.699c-82.595 206.047-280.599 348.934-511.988 349.026h-0.012c-66.419-0.004-130.048-11.944-188.86-33.792l3.753 1.221 100.51-100.549c25.175 10.593 54.434 16.769 85.131 16.817h0.019zM47.262 830.976l127.449-127.488c-76.699-59.997-136.351-138.397-172.726-228.675l-1.315-3.694c82.604-206.040 280.603-348.923 511.987-349.026h0.013c0.187 0 0.409 0 0.63 0 73.201 0 143.049 14.35 206.887 40.391l-3.662-1.321 19.692-19.692 136.35-135.877 59.077 59.077-825.305 825.423zM304.561 573.637l72.113-72.113c-2.294-9.064-3.64-19.484-3.702-30.208v-0.040c0-0.070 0-0.153 0-0.236 0-76.979 62.404-139.382 139.382-139.382 0.069 0 0.139 0 0.208 0h-0.011c10.798 0.125 21.204 1.554 31.146 4.137l-0.898-0.198 72.153-72.153c-29.81-15.34-65.018-24.426-102.326-24.654h-0.074c-128.473 0.067-232.6 104.208-232.645 232.68v0.004c0.262 37.302 9.344 72.423 25.26 103.462l-0.605-1.299zM505.108 609.95l146.59-146.59 0.945 7.444c0 0.058 0 0.128 0 0.197 0 77-62.421 139.422-139.422 139.422-0.069 0-0.139 0-0.208 0h0.011z" />
<glyph unicode="&#xe931;" glyph-name="subscription_billing" d="M896 192v-42.667c0-46.933-38.4-85.333-85.333-85.333h-597.333c-47.36 0-85.333 38.4-85.333 85.333v597.333c0 46.933 37.973 85.333 85.333 85.333h597.333c46.933 0 85.333-38.4 85.333-85.333v-42.667h-384c-47.36 0-85.333-38.4-85.333-85.333v-341.333c0-46.933 37.973-85.333 85.333-85.333h384zM512 277.333h426.667v341.333h-426.667v-341.333zM682.667 384c-35.413 0-64 28.587-64 64s28.587 64 64 64 64-28.587 64-64-28.587-64-64-64z" />
<glyph unicode="&#xe932;" glyph-name="templates" d="M511.449 72.586l-395.422 307.436-86.922-67.623 482.895-375.572 482.895 375.572-87.473 68.135zM512 208.857l482.895 375.572-482.895 375.572-482.895-375.572 87.473-68.135z" />
<glyph unicode="&#xe933;" glyph-name="time" d="M511.488 960c-282.521-0.157-511.488-229.221-511.488-511.764 0-0.083 0-0.166 0-0.25v0.013c0-0.070 0-0.153 0-0.236 0-282.542 228.967-511.606 511.473-511.764h0.015c0.059 0 0.128 0 0.197 0 282.833 0 512.136 229.192 512.315 511.983v0.017c-0.179 282.808-229.482 512-512.315 512-0.069 0-0.138 0-0.207 0h0.010zM512 38.4c-226.216 0-409.6 183.384-409.6 409.6v0c0 226.216 183.384 409.6 409.6 409.6v0c226.216 0 409.6-183.384 409.6-409.6v0c0-226.216-183.384-409.6-409.6-409.6v0zM537.167 699.707h-75.5v-302.041l264.31-158.562 37.77 61.913-226.54 134.42z" />
<glyph unicode="&#xe934;" glyph-name="unshare" d="M256 499.2v-102.4h512v102.4zM512 960c-282.77 0-512-229.23-512-512s229.23-512 512-512c282.77 0 512 229.23 512 512v0c0 282.77-229.23 512-512 512v0zM512 38.4c-226.216 0-409.6 183.384-409.6 409.6s183.384 409.6 409.6 409.6c226.216 0 409.6-183.384 409.6-409.6v0c-0.314-226.090-183.511-409.287-409.57-409.6h-0.030z" />
<glyph unicode="&#xe935;" glyph-name="up_arrow" d="M120.32 131.82l391.68 390.814 391.68-390.814 120.32 120.32-512 512-512-512z" />
<glyph unicode="&#xe936;" glyph-name="views" d="M512 796.751c-231.187-0.134-428.997-142.894-510.215-345.051l-1.313-3.7c82.442-205.918 280.308-348.718 511.527-348.718s429.085 142.8 510.217 345.019l1.311 3.699c-82.53 205.856-280.34 348.617-511.511 348.751h-0.017zM512 215.631c-128.334 0-232.369 104.035-232.369 232.369s104.035 232.369 232.369 232.369c128.334 0 232.369-104.035 232.369-232.369v0c-0.134-128.28-104.089-232.235-232.356-232.369h-0.013zM512 587.658c-77.044 0-139.5-62.456-139.5-139.5s62.456-139.5 139.5-139.5c76.989 0 139.411 62.367 139.5 139.334v0.009c0 0.058 0 0.128 0 0.197 0 76.935-62.368 139.303-139.303 139.303-0.069 0-0.138 0-0.208 0h0.011z" />
<glyph unicode="&#xe937;" glyph-name="watch_video_tutorials" d="M896.354 957.086h-765.834c-70.399-0.223-127.405-57.244-127.606-127.626v-765.853c0.223-70.385 57.221-127.383 127.585-127.606h765.855c70.402 0.201 127.422 57.207 127.645 127.585v765.737c-0.134 70.467-57.189 127.563-127.626 127.764h-0.019zM385.969 159.35v574.385l382.897-287.193z" />
<glyph unicode="&#xe938;" glyph-name="webhook_test_response" d="M554.667 554.667h213.333v85.333h-213.333v-85.333zM554.667 256h213.333v85.333h-213.333v-85.333zM810.667 64h-597.333c-46.933 0-85.333 38.4-85.333 85.333v597.333c0 46.933 38.4 85.333 85.333 85.333h597.333c46.933 0 85.333-38.4 85.333-85.333v-597.333c0-46.933-38.4-85.333-85.333-85.333zM256 490.667h213.333v213.333h-213.333v-213.333zM298.667 661.333h128v-128h-128v128zM256 192h213.333v213.333h-213.333v-213.333zM298.667 362.667h128v-128h-128v128z" />
<glyph unicode="&#xe939;" glyph-name="whats_new" d="M558.631 564.382c0-102.841-83.369-186.21-186.21-186.21s-186.21 83.369-186.21 186.21c0 102.841 83.369 186.21 186.21 186.21s186.21-83.369 186.21-186.21zM372.382 285.105c-124.258 0-372.382-62.385-372.382-186.21v-93.105h744.763v93.105c0 123.825-248.084 186.21-372.382 186.21zM733.617 733.814l-78.218-78.769c18.348-25.087 29.358-56.55 29.358-90.585s-11.010-65.498-29.663-91.022l0.305 0.437 78.218-78.769c43.659 43.195 70.694 103.117 70.694 169.354s-27.035 126.158-70.673 169.333l-0.021 0.021zM887.69 890.21l-75.894-75.855c59.98-65.727 96.718-153.56 96.718-249.974s-36.738-184.248-96.98-250.265l0.262 0.291 75.894-75.855c84.182 83.020 136.33 198.335 136.33 325.829s-52.148 242.809-136.278 325.777l-0.052 0.051z" />
<glyph unicode="&#xe93a;" glyph-name="stop_icon" d="M512 874.667c-234.667 0-426.667-192-426.667-426.667s192-426.667 426.667-426.667 426.667 192 426.667 426.667-192 426.667-426.667 426.667zM512 106.667c-187.733 0-341.333 153.6-341.333 341.333s153.6 341.333 341.333 341.333 341.333-153.6 341.333-341.333-153.6-341.333-341.333-341.333zM332.8 627.2h362.667v-362.667h-362.667v362.667z" />
<glyph unicode="&#xe93b;" glyph-name="windows" d="M0 483.446v334.769l409.6 55.138v-389.908h-409.6zM476.554 881.231l547.446 78.769v-476.554h-547.446v397.785zM1024 412.554v-476.554l-547.446 78.769v397.785h547.446zM409.6 22.646l-409.6 55.138v334.769h409.6v-389.908z" />
<glyph unicode="&#xe93c;" glyph-name="chrome" d="M259.938 514.954l-149.662 252.062c94.523 118.154 240.246 192.985 401.723 192.985 189.046 0 350.523-102.4 441.108-252.062h-417.477c-7.877 0-15.754 0-23.631 0-122.092 3.938-224.492-82.708-252.062-192.985zM697.108 633.108h295.385c19.692-55.138 31.508-118.154 31.508-185.108 0-279.631-224.492-508.062-508.062-512l208.738 362.338c27.569 43.323 47.262 94.523 47.262 149.662 3.938 74.831-27.569 137.846-74.831 185.108zM326.892 448c0 102.4 82.708 185.108 185.108 185.108s185.108-82.708 185.108-185.108c0-102.4-82.708-185.108-185.108-185.108s-185.108 82.708-185.108 185.108zM582.892 195.938l-145.723-252.062c-248.123 35.446-437.169 248.123-437.169 504.123 0 90.585 23.631 177.231 66.954 252.062l208.738-362.338c43.323-90.585 133.908-149.662 236.308-149.662 23.631-3.938 47.262 0 70.892 7.877z" />
<glyph unicode="&#xe93d;" glyph-name="checkmark" d="M384 270.080l-177.92 177.92-60.587-60.16 238.507-238.507 512 512-60.16 60.16z" />
<glyph unicode="&#xe93e;" glyph-name="edge" d="M960.985 471.631c0 90.585-19.692 173.292-55.138 240.246-39.385 70.892-94.523 126.031-157.538 165.415-66.954 39.385-141.785 55.138-224.492 55.138-55.138 0-102.4-7.877-149.662-23.631s-90.585-35.446-126.031-63.015-63.015-59.077-90.585-94.523-47.262-74.831-63.015-118.154c-15.754-43.323-27.569-82.708-31.508-129.969 23.631 31.508 47.262 59.077 74.831 86.646s59.077 55.138 94.523 78.769 78.769 39.385 122.092 55.138c43.323 15.754 90.585 23.631 141.785 23.631h11.815c7.877 0 19.692 0 31.508-3.938s27.569-7.877 39.385-11.815c15.754-3.938 27.569-11.815 43.323-23.631s27.569-23.631 39.385-35.446c11.815-15.754 19.692-31.508 23.631-55.138s7.877-47.262 3.938-74.831h-342.646c3.938 35.446 11.815 63.015 23.631 86.646s23.631 47.262 43.323 66.954c-74.831-35.446-133.908-82.708-177.231-145.723s-59.077-133.908-59.077-220.554c0-70.892 23.631-137.846 66.954-200.862s98.462-110.277 169.354-133.908c51.2-19.692 106.338-27.569 169.354-27.569s118.154 7.877 169.354 19.692c51.2 11.815 90.585 31.508 126.031 51.2v204.8c-27.569-19.692-59.077-35.446-94.523-47.262-35.446-15.754-74.831-23.631-114.215-27.569s-78.769-3.938-114.215 0c-39.385 3.938-70.892 15.754-102.4 31.508s-55.138 35.446-74.831 66.954c-19.692 27.569-27.569 63.015-27.569 102.4h610.462v102.4z" />
<glyph unicode="&#xe93f;" glyph-name="firefox" horiz-adv-x="1091" d="M1078.557 620.066c-4.197 0-8.393 0-8.393-4.197l-12.59-25.18c-4.197 33.574-12.59 92.328-25.18 130.098-16.787 58.754-54.557 96.525-54.557 96.525-4.197 4.197-8.393 4.197-12.59 0-4.197 0-4.197-4.197-4.197-8.393l8.393-41.967c-20.984 25.18-58.754 58.754-96.525 75.541-8.393 4.197-16.787 8.393-25.18 12.59-75.541 67.148-176.262 104.918-281.18 104.918-146.885 0-281.18-75.541-360.918-197.246-8.393 4.197-20.984 16.787-25.18 29.377-12.59 29.377-16.787 58.754-16.787 58.754 0 4.197-4.197 4.197-4.197 8.393-4.197 0-8.393 0-8.393 0-67.148-67.148-62.951-163.672-58.754-188.852-8.393-8.393-29.377-33.574-54.557-71.344-29.377-46.164-37.77-125.902-37.77-130.098s0-8.393 4.197-8.393c4.197 0 8.393 0 8.393 0l20.984 20.984c0-8.393-4.197-16.787-4.197-25.18-8.393-41.967-4.197-109.115-4.197-113.311s4.197-8.393 8.393-8.393c4.197 0 8.393 0 8.393 4.197l12.59 25.18c8.393-58.754 41.967-180.459 163.672-297.967 92.328-83.934 218.23-134.295 348.328-134.295 0 0 0 0 0 0 125.902 0 243.41 46.164 344.131 130.098 117.508 100.721 159.475 243.41 176.262 348.328 16.787 109.115 8.393 197.246 8.393 201.443-8.393 4.197-12.59 8.393-16.787 8.393zM881.311 620.066c0 0 12.59-16.787 16.787-58.754 0-29.377-4.197-79.738-8.393-104.918l-25.18 29.377c-4.197 4.197-8.393 4.197-8.393 4.197-4.197 0-4.197-4.197-4.197-8.393 0 0 8.393-71.344-4.197-130.098-8.393-29.377-16.787-50.361-25.18-62.951l4.197 46.164c0 4.197-4.197 8.393-8.393 8.393s-8.393 0-8.393-4.197c0 0-41.967-88.131-155.279-125.902-20.984-8.393-37.77-8.393-54.557-8.393-58.754 0-113.311 29.377-146.885 50.361 4.197 0 4.197 0 8.393 0 46.164 0 79.738 20.984 104.918 33.574 8.393 4.197 12.59 8.393 20.984 12.59 37.77 20.984 58.754 20.984 71.344 20.984 8.393 0 12.59 4.197 16.787 12.59 4.197 16.787-16.787 46.164-41.967 62.951-12.59 8.393-25.18 8.393-41.967 8.393-25.18 0-58.754-8.393-104.918-20.984-8.393-4.197-16.787-4.197-25.18-4.197-29.377 0-46.164 12.59-58.754 25.18-12.59 16.787-20.984 37.77-20.984 54.557 0 8.393 4.197 16.787 20.984 16.787s33.574-8.393 37.77-8.393c0 0 0 0 4.197 0 0 0 0 0 0 0 4.197 0 8.393 4.197 8.393 8.393 0 0 0 0 0 0l-4.197 79.738c8.393 4.197 29.377 20.984 50.361 33.574 50.361 37.77 58.754 50.361 50.361 62.951-4.197 12.59-25.18 16.787-46.164 20.984-12.59 0-25.18 4.197-37.77 8.393-25.18 8.393-41.967 33.574-46.164 37.77 0 4.197-4.197 20.984 4.197 33.574 8.393 16.787 37.77 37.77 46.164 46.164 4.197 4.197 4.197 4.197 4.197 8.393s-4.197 4.197-8.393 8.393c0 0-29.377 4.197-71.344-12.59-33.574-16.787-62.951-33.574-71.344-41.967-4.197 0-12.59 0-20.984 4.197 67.148 75.541 163.672 121.705 268.59 121.705 75.541 0 146.885-20.984 205.639-67.148l-62.951-12.59c-4.197 0-8.393-4.197-8.393-8.393s4.197-8.393 8.393-8.393c0 0 79.738-25.18 142.689-71.344 12.59-8.393 25.18-25.18 37.77-41.967 8.393-20.984 16.787-41.967 25.18-67.148l-20.984 16.787c-4.197 4.197-8.393 4.197-12.59 0-8.393 0-8.393-8.393-4.197-8.393z" />
<glyph unicode="&#xe940;" glyph-name="internet-explorer" d="M763.733 371.2h238.933c0 17.067 4.267 34.133 4.267 51.2 0 81.067-21.333 157.867-59.733 221.867 34.133 106.667 34.133 192-17.067 247.467-51.2 51.2-183.467 42.667-337.067-25.6-12.8 0-21.333 0-34.133 0-209.067 0-384-145.067-430.933-337.067 64 85.333 132.267 145.067 226.133 187.733-8.533-4.267-55.467-55.467-64-64-243.2-243.2-320-558.933-234.667-640 64-64 174.933-51.2 307.2 12.8 59.733-29.867 128-46.933 200.533-46.933 196.267 0 358.4 123.733 418.133 298.667h-238.933c-34.133-59.733-98.133-102.4-170.667-102.4s-140.8 42.667-170.667 102.4c-12.8 25.6-21.333 59.733-21.333 93.867v0h384zM371.2 490.667c4.267 98.133 85.333 174.933 187.733 174.933 98.133 0 179.2-76.8 187.733-174.933h-375.467zM925.867 840.533c34.133-34.133 34.133-98.133 4.267-174.933-51.2 76.8-123.733 136.533-204.8 170.667 89.6 38.4 162.133 42.667 200.533 4.267zM115.2 29.867c-42.667 42.667-29.867 132.267 25.6 243.2 34.133-98.133 102.4-179.2 187.733-230.4-93.867-42.667-174.933-51.2-213.333-12.8z" />
<glyph unicode="&#xe941;" glyph-name="linux" horiz-adv-x="876" d="M848.842 138.105c-30.316 13.474-43.789 30.316-40.421 53.895 0 26.947-13.474 50.526-23.579 57.263 3.368 16.842 16.842 77.474 0 131.368-20.211 57.263-77.474 144.842-141.474 229.053-23.579 33.684-26.947 74.105-26.947 117.895s-3.368 90.947-26.947 141.474c-23.579 57.263-77.474 90.947-141.474 90.947-37.053 0-77.474-13.474-107.789-33.684-60.632-40.421-50.526-134.737-47.158-195.368 0-6.737 0-16.842 3.368-23.579 3.368-60.632 0-90.947-3.368-101.053-3.368-6.737-16.842-23.579-30.316-43.789s-30.316-40.421-43.789-64c-16.842-23.579-30.316-64-43.789-101.053-10.105-26.947-16.842-53.895-26.947-67.368-16.842-30.316-13.474-57.263-10.105-67.368-6.737-3.368-13.474-13.474-23.579-30.316-10.105-20.211-26.947-30.316-67.368-37.053-16.842-3.368-30.316-10.105-37.053-23.579-10.105-16.842-3.368-37.053 0-50.526 6.737-20.211 3.368-33.684-6.737-57.263-3.368-6.737-3.368-10.105-6.737-16.842 3.368-3.368 3.368-13.474 10.105-23.579 13.474-23.579 57.263-30.316 101.053-33.684 26.947-3.368 53.895-13.474 80.842-23.579s53.895-20.211 80.842-23.579c3.368 0 6.737 0 10.105 0 37.053 0 57.263 26.947 60.632 37.053 13.474 3.368 60.632 13.474 111.158 13.474s97.684-6.737 111.158-10.105c3.368-6.737 16.842-26.947 33.684-37.053 10.105-6.737 23.579-6.737 37.053-6.737 0 0 0 0 0 0 13.474 0 43.789 3.368 64 26.947 23.579 23.579 77.474 53.895 117.895 77.474 10.105 3.368 16.842 10.105 23.579 13.474 23.579 13.474 33.684 30.316 33.684 50.526 3.368 10.105-6.737 23.579-23.579 30.316zM343.579 141.474c-3.368 20.211-26.947 40.421-57.263 64-23.579 20.211-50.526 40.421-60.632 57.263-16.842 37.053-3.368 104.421 16.842 138.105 10.105 16.842 20.211 43.789 26.947 67.368 10.105 26.947 20.211 53.895 30.316 67.368 16.842 20.211 33.684 57.263 33.684 84.211 16.842-13.474 40.421-33.684 64-33.684 3.368 0 6.737 0 10.105 0 16.842 3.368 37.053 16.842 60.632 30.316 20.211 10.105 40.421 23.579 50.526 26.947 13.474-20.211 101.053-215.579 111.158-276.211 6.737-50.526 0-90.947-3.368-104.421-3.368 0-6.737 0-10.105 0-23.579 0-30.316-13.474-33.684-20.211-3.368-20.211-3.368-87.579-3.368-101.053-10.105-10.105-53.895-64-117.895-74.105-26.947-3.368-50.526-6.737-70.737-6.737s-30.316 0-37.053 3.368l-30.316 37.053c10.105 3.368 23.579 16.842 20.211 40.421zM384 744.421c-3.368 0-3.368 0 0 0-3.368 0-3.368 3.368-3.368 6.737-3.368 20.211-16.842 33.684-30.316 33.684 0 0-3.368 0-3.368 0-10.105 0-16.842-6.737-20.211-16.842 3.368 20.211 13.474 37.053 30.316 37.053s30.316-23.579 30.316-47.158c-3.368-6.737-3.368-10.105-3.368-13.474zM508.632 727.579c0 3.368 3.368 10.105 3.368 16.842 0 23.579-13.474 40.421-33.684 40.421s-33.684-20.211-33.684-40.421c0 0 0-3.368 0-3.368s-3.368 0-3.368 0c-3.368 6.737-3.368 13.474-3.368 20.211 0 26.947 16.842 50.526 40.421 50.526s40.421-23.579 40.421-50.526c0-13.474-3.368-23.579-10.105-33.684zM495.158 673.684c0 0 0-3.368-10.105-6.737-3.368-3.368-10.105-3.368-13.474-6.737l-3.368-3.368c-16.842-10.105-53.895-33.684-64-33.684-6.737 0-10.105 3.368-20.211 6.737-3.368 0-3.368 3.368-6.737 3.368-16.842 10.105-26.947 23.579-30.316 26.947 6.737 3.368 20.211 13.474 26.947 20.211 13.474 13.474 30.316 23.579 37.053 23.579 0 0 0 0 0 0 10.105 0 30.316-10.105 43.789-16.842 6.737 3.368 13.474 0 16.842 0 13.474-6.737 20.211-10.105 23.579-13.474zM613.053 47.158c6.737 33.684 16.842 80.842 13.474 107.789 0 6.737 0 13.474 0 20.211 0 13.474-3.368 30.316 0 37.053 0 0 0 0 0 0 0-16.842 3.368-47.158 26.947-57.263 6.737-3.368 16.842-3.368 26.947-3.368 23.579 0 53.895 13.474 64 23.579 6.737 6.737 13.474 13.474 16.842 20.211 0-3.368 0-6.737 0-10.105 0-23.579 10.105-53.895 30.316-64h3.368c6.737-3.368 26.947-13.474 26.947-20.211 0 0 0 0 0 0-6.737-3.368-23.579-13.474-40.421-23.579-30.316-16.842-64-33.684-80.842-50.526-23.579-23.579-47.158-37.053-60.632-37.053-3.368 0-3.368 0-3.368 0-16.842 0-30.316 23.579-23.579 57.263zM60.632 134.737c0 6.737-3.368 13.474 0 20.211 0 3.368 23.579 10.105 33.684 10.105 13.474 3.368 26.947 6.737 37.053 10.105 13.474 6.737 16.842 20.211 23.579 33.684 3.368 10.105 6.737 16.842 13.474 20.211 0 0 0 0 0 0 10.105 0 30.316-20.211 40.421-37.053 3.368-3.368 6.737-13.474 13.474-23.579 20.211-30.316 43.789-74.105 57.263-87.579s30.316-37.053 26.947-60.632c-3.368-16.842-23.579-30.316-26.947-33.684 0 0-3.368 0-6.737 0-26.947 0-77.474 20.211-104.421 33.684l-3.368 3.368c-16.842 6.737-40.421 10.105-64 13.474-20.211 3.368-43.789 6.737-50.526 10.105-3.368 3.368 0 16.842 3.368 26.947 3.368 6.737 6.737 16.842 6.737 26.947 3.368 13.474 0 23.579 0 33.684z" />
<glyph unicode="&#xe942;" glyph-name="plus_add" d="M810.667 405.333h-256v-256h-85.333v256h-256v85.333h256v256h85.333v-256h256v-85.333z" />
<glyph unicode="&#xe943;" glyph-name="plus_circle" d="M512 874.667c-235.52 0-426.667-191.147-426.667-426.667s191.147-426.667 426.667-426.667 426.667 191.147 426.667 426.667-191.147 426.667-426.667 426.667zM725.333 405.333h-170.667v-170.667h-85.333v170.667h-170.667v85.333h170.667v170.667h85.333v-170.667h170.667v-85.333z" />
<glyph unicode="&#xe944;" glyph-name="safari" d="M512 938.667c-268.8 0-490.667-221.867-490.667-490.667s221.867-490.667 490.667-490.667 490.667 221.867 490.667 490.667-221.867 490.667-490.667 490.667zM204.8 140.8l226.133 341.333 115.2-115.2-341.333-226.133zM588.8 413.867l-115.2 115.2 341.333 226.133-226.133-341.333z" />
<glyph unicode="&#xe945;" glyph-name="ubuntu-logo" horiz-adv-x="997" d="M337.498 457.588c0 80.539 38.352 149.573 95.88 195.596l-88.21 141.903c-76.704-53.693-130.397-130.397-157.243-218.607 42.187-26.846 69.034-72.869 69.034-126.562 0-49.858-26.846-95.88-65.199-122.727 26.846-84.375 84.375-157.243 153.408-207.101l80.539 145.738c-53.693 46.022-88.21 115.056-88.21 191.76zM214.772 449.918c0-57.528-49.858-107.386-107.386-107.386s-107.386 49.858-107.386 107.386c0 57.528 49.858 107.386 107.386 107.386s107.386-46.022 107.386-107.386zM816.899 192.959c23.011 0 49.858-7.67 69.034-15.341 65.199 69.034 107.386 157.243 111.221 256.959l-164.914 3.835c-11.506-126.562-118.891-222.442-245.453-222.442-34.517 0-69.034 7.67-99.715 19.176l-84.375-145.738c53.693-26.846 118.891-42.187 184.090-42.187 26.846 0 57.528 3.835 84.375 7.67 0 76.704 65.199 138.067 145.738 138.067zM924.285 43.386c0-57.528-46.022-107.386-107.386-107.386-57.528 0-107.386 46.022-107.386 107.386 0 57.528 49.858 107.386 107.386 107.386s107.386-49.858 107.386-107.386zM897.438 729.888c-23.011-15.341-53.693-26.846-84.375-26.846-80.539 0-149.573 65.199-149.573 149.573 0 3.835 0 7.67 0 11.506-26.846 3.835-49.858 7.67-76.704 7.67-65.199 0-130.397-15.341-184.090-42.187l80.539-145.738c30.682 15.341 65.199 23.011 103.551 23.011 126.562 0 230.112-95.88 245.453-218.607l164.914 3.835c-7.67 92.045-46.022 172.584-99.715 237.783zM916.614 852.614c0-57.528-46.022-107.386-107.386-107.386-57.528 0-107.386 49.858-107.386 107.386s49.858 107.386 107.386 107.386c61.363 0 107.386-49.858 107.386-107.386z" />
<glyph unicode="&#xe946;" glyph-name="apple" d="M166.4 571.733c-81.067-136.533-29.867-349.867 59.733-477.867 42.667-64 89.6-119.467 149.333-119.467 0 0 4.267 0 4.267 0 29.867 0 51.2 8.533 68.267 17.067 21.333 8.533 46.933 21.333 81.067 21.333s55.467-8.533 76.8-17.067c21.333-8.533 42.667-17.067 76.8-17.067 68.267 0 110.933 64 149.333 119.467s59.733 110.933 64 132.267v0c0 4.267 0 8.533-4.267 8.533 0 0 0 0 0 0-12.8 4.267-119.467 51.2-119.467 183.467 0 106.667 81.067 162.133 98.133 170.667v0c0 0 4.267 4.267 4.267 4.267s0 4.267 0 4.267c-55.467 81.067-140.8 93.867-174.933 93.867-4.267 0-8.533 0-17.067 0-42.667 0-81.067-17.067-110.933-25.6-21.333-8.533-38.4-17.067-51.2-17.067s-34.133 8.533-55.467 17.067c-29.867 12.8-64 25.6-98.133 25.6 0 0 0 0-4.267 0-81.067-4.267-157.867-46.933-196.267-123.733zM695.467 921.6c-46.933 0-106.667-34.133-140.8-72.533-29.867-34.133-59.733-93.867-51.2-149.333 0-4.267 4.267-8.533 8.533-8.533s8.533 0 8.533 0c46.933 0 98.133 25.6 136.533 68.267 38.4 46.933 55.467 102.4 51.2 153.6-4.267 4.267-8.533 8.533-12.8 8.533z" />
<glyph unicode="&#xe947;" glyph-name="resend" d="M753.067 689.067c-61.867 61.867-146.773 100.267-241.067 100.267-188.587 0-340.907-152.747-340.907-341.333s152.32-341.333 340.907-341.333c159.147 0 291.84 108.8 329.813 256h-88.747c-34.987-99.413-129.707-170.667-241.067-170.667-141.227 0-256 114.773-256 256s114.773 256 256 256c70.827 0 133.973-29.44 180.053-75.947l-137.387-137.387h298.667v298.667l-100.267-100.267z" />
<glyph unicode="&#xe948;" glyph-name="faq" d="M469.333 192h85.333v85.333h-85.333v-85.333zM512 874.667c-235.52 0-426.667-191.147-426.667-426.667s191.147-426.667 426.667-426.667 426.667 191.147 426.667 426.667-191.147 426.667-426.667 426.667zM512 106.667c-188.16 0-341.333 153.173-341.333 341.333s153.173 341.333 341.333 341.333 341.333-153.173 341.333-341.333-153.173-341.333-341.333-341.333zM512 704c-94.293 0-170.667-76.373-170.667-170.667h85.333c0 46.933 38.4 85.333 85.333 85.333s85.333-38.4 85.333-85.333c0-85.333-128-74.667-128-213.333h85.333c0 96 128 106.667 128 213.333 0 94.293-76.373 170.667-170.667 170.667z" />
</font></defs></svg>